{
  "name": "Super Html Site",
  "name-lang": {
    "es-ES": "Super Html Site",
    "en-US": "Super Html Site"
  },
  "identifier": "superhtml",
  "description": {
    "es-ES": "Este módulo te permite introducir en tu app cualquier código web de forma segura.",
    "en-US": "This module allows you to enter any web code in your app safely."
  },
  "documentation": {
    "es-ES": "modules/superhtml/docs/es_ES.md",
    "en-US": "modules/superhtml/docs/en_US.md"
  },
  "descriptionShort": {
    "es-ES": "Este módulo te permite introducir en tu app cualquier código web de forma segura.",
    "en-US": "This module allows you to enter any web code in your app safely."
  },
  "icon": "room",
  "type": "A",
  "version": "1.0.1",
  "author": "King of App",
  "category": [
    "html",
    "code",
    "embed"
  ],
  "price": 0,
  "subscription": false,
  "canContain": false,
  "platforms": [
    "android",
    "ios"
  ],
  "view": "modules/superhtml/index.html",
  "files": [
    "modules/superhtml/controller.js",
    "modules/superhtml/style.html"
  ],
  "scope": {
    "code": "Paste here your html code",
    "useTranslate": false
  },
  "configChanges":[
    {
			"type": "xml",
			"path": "widget",
			"data": "<allow-navigation href='*' /> "
		}
  ],
  "scope-lang": {
    "es-ES": {
      "codeLang": ""
    },
    "en-US": {
      "codeLang": ""
    }
  },
  "libs": [],
  "config": [
    {
      "key": "code",
      "type": "textarea",
      "templateOptions": {
        "label": "Code:",
        "rows": 50,
        "grow": true,
        "required": true
      }
    },
    {
      "type": "checkbox",
      "key": "useTranslate",
      "templateOptions": {
        "description": "Use Translate",
        "label": "Use translate"
      }
    }
  ],
  "config-lang": [
    {
      "key": "codeLang",
      "type": "textarea",
      "templateOptions": {
        "label": "Code:",
        "rows": 50,
        "grow": true
      }
    }
  ],
  "showOn": {
    "menu": true,
    "market": true,
    "dragDrop": true
  },
  "images": {
    "list": "modules/superhtml/images/list.png",
    "screenshots": [],
    "popover": "modules/superhtml/images/popover.png",
    "banner": "modules/superhtml/images/banner.png",
    "logo": "modules/superhtml/images/logo.png"
  }
}